%YAML 1.1
%TAG !u! tag:unity3d.com,2011:
--- !u!1 &221326362588811000
GameObject:
  m_ObjectHideFlags: 0
  m_CorrespondingSourceObject: {fileID: 0}
  m_PrefabInstance: {fileID: 0}
  m_PrefabAsset: {fileID: 0}
  serializedVersion: 6
  m_Component:
  - component: {fileID: 221326362588811002}
  - component: {fileID: 221326362588811001}
  - component: {fileID: 221326362127747118}
  m_Layer: 0
  m_Name: GameManager 1
  m_TagString: Untagged
  m_Icon: {fileID: 0}
  m_NavMeshLayer: 0
  m_StaticEditorFlags: 0
  m_IsActive: 1
--- !u!4 &221326362588811002
Transform:
  m_ObjectHideFlags: 0
  m_CorrespondingSourceObject: {fileID: 0}
  m_PrefabInstance: {fileID: 0}
  m_PrefabAsset: {fileID: 0}
  m_GameObject: {fileID: 221326362588811000}
  m_LocalRotation: {x: 0, y: 0, z: 0, w: 1}
  m_LocalPosition: {x: 8.103536, y: 8.465824, z: -3.2402}
  m_LocalScale: {x: 1, y: 1, z: 1}
  m_Children: []
  m_Father: {fileID: 0}
  m_RootOrder: 0
  m_LocalEulerAnglesHint: {x: 0, y: 0, z: 0}
--- !u!114 &221326362588811001
MonoBehaviour:
  m_ObjectHideFlags: 0
  m_CorrespondingSourceObject: {fileID: 0}
  m_PrefabInstance: {fileID: 0}
  m_PrefabAsset: {fileID: 0}
  m_GameObject: {fileID: 221326362588811000}
  m_Enabled: 1
  m_EditorHideFlags: 0
  m_Script: {fileID: 11500000, guid: ca98863a0373a5f4c95a49b052e7d892, type: 3}
  m_Name: 
  m_EditorClassIdentifier: 
  cardDraw: D Key
  inventoryScreen: I Key
  level01: 0 Key
  mainMenu: M Key
  player: {fileID: 0}
  unspawnedEnemies: []
  enemies:
  - {fileID: 0}
  gridPositions: []
  spawnPoints:
  - {fileID: 0}
  startPos: {fileID: 0}
  clickedCard: {fileID: 0}
  drawPhase: 0
  playPhase: 0
  endPhase: 0
  enemyPhase: 0
  handManagerScript: {fileID: 0}
  playableCardScript: {fileID: 0}
  playerScript: {fileID: 0}
  winMenu: {fileID: 0}
  currentLevel: 0
  currentTime: 0
  turnText: {fileID: 0}
--- !u!114 &221326362127747118
MonoBehaviour:
  m_ObjectHideFlags: 0
  m_CorrespondingSourceObject: {fileID: 0}
  m_PrefabInstance: {fileID: 0}
  m_PrefabAsset: {fileID: 0}
  m_GameObject: {fileID: 221326362588811000}
  m_Enabled: 1
  m_EditorHideFlags: 0
  m_Script: {fileID: 11500000, guid: 31a825ec39256e44095a2c30fd3404cb, type: 3}
  m_Name: 
  m_EditorClassIdentifier: 
  originalDeck: []
  tempDeck: []
  currentDeck: []
  deckVisual: {fileID: 0}
  movementPrefab:
  - {fileID: 4929909362090653235, guid: 543ada57ec637704795ef13517f1c168, type: 3}
  - {fileID: 4929909362090653235, guid: 069c38a9471af0f4783b69bade334fd4, type: 3}
  - {fileID: 4929909362090653235, guid: 4ce631eb57aa4074e9e5c342dbf838fd, type: 3}
  hand: []
  playableCard: []
  playableCardPrefab: {fileID: 5443190288879455667, guid: 43e72b56a38a5ee4faf60fb61c932e51,
    type: 3}
  handStart: {fileID: 0}
  gameManager: {fileID: 0}
  hovered: {fileID: 0}
  prefabCardIndex: 0
